{
   "app_copyright": {
      "message": "Copyright 2011 Google Inc. Todos los derechos reservados."
   },
   "app_description": {
      "message": "Comparte lo que quieras solo con quien t\u00FA quieras."
   },
   "app_name": {
      "message": "Google+"
   },
   "share_intent_title": {
      "message": "Compartir en Google+"
   }
}
