{
   "app_copyright": {
      "message": "Autorska prava 2011. Google Inc. Sva prava pridr\u017Eana."
   },
   "app_description": {
      "message": "Podijelite to\u010Dno ono \u0161to \u017Eelite s pravim osobama."
   },
   "app_name": {
      "message": "Google+"
   },
   "share_intent_title": {
      "message": "Dijeli s uslugom Google+"
   }
}
