{
   "app_copyright": {
      "message": "\u0410\u0432\u0442\u043E\u0440\u0441\u043A\u0438 \u043F\u0440\u0430\u0432\u0430 2011 Google Inc. \u0412\u0441\u0438\u0447\u043A\u0438 \u043F\u0440\u0430\u0432\u0430 \u0437\u0430\u043F\u0430\u0437\u0435\u043D\u0438."
   },
   "app_description": {
      "message": "\u0421\u043F\u043E\u0434\u0435\u043B\u044F\u0439\u0442\u0435 \u0442\u043E\u0447\u043D\u0438\u0442\u0435 \u043D\u0435\u0449\u0430 \u0441 \u0442\u043E\u0447\u043D\u0438\u0442\u0435 \u0445\u043E\u0440\u0430."
   },
   "app_name": {
      "message": "Google+"
   },
   "share_intent_title": {
      "message": "\u0421\u043F\u043E\u0434\u0435\u043B\u044F\u043D\u0435 \u0432 Google+"
   }
}
