{
   "editThis_": {
      "message": ""
   },
   "editThis_AN_adsDescription": {
      "message": "Poka\u017C dyskretne reklamy na niekt\u00F3rych stronach kt\u00F3re odwiedzi\u0142em"
   },
   "editThis_AN_optInDescription": {
      "message": "Pozw\u00F3l nam na zbieranie i dzielenie si\u0119 twoimi danymi przegl\u0105dania. Wszystkie dane s\u0105 anonimowe"
   },
   "editThis_Alert_deleteAll": {
      "message": "Usun\u0105\u0107 wszystkie ciastka z tej witryny?"
   },
   "editThis_Alert_deleteCookie": {
      "message": "Usu\u0144 ciastko"
   },
   "editThis_Alert_deleteRule": {
      "message": "Usu\u0144 t\u0119 regu\u0142\u0119"
   },
   "editThis_Alert_submitAll": {
      "message": "Zatwierd\u017A wszystkie zmiany w ciastkach"
   },
   "editThis_Amount": {
      "message": "Ilo\u015B\u0107"
   },
   "editThis_Blocked_Cookies": {
      "message": "Zablokowane ciastka"
   },
   "editThis_Blocked_Def": {
      "message": "Je\u017Celi chcesz automatycznie usuwa\u0107 to ciastko za ka\u017Cdym razem, dodaj filtr a ju\u017C nie b\u0119dzie zawraca\u0142o Ci wi\u0119cej g\u0142owy."
   },
   "editThis_Charity_Message": {
      "message": "Pomo\u017Cesz dzieciom w potrzebie na ca\u0142ym \u015Bwiecie, poniewa\u017C $1% przychod\u00F3w przechodzi do"
   },
   "editThis_ContextMenu": {
      "message": "Edytuj ciastka"
   },
   "editThis_Copied_clipboard": {
      "message": "Ciastka zosta\u0142y skopiowane do schowka"
   },
   "editThis_Copy_Cookies": {
      "message": "Eksportuj ciastka"
   },
   "editThis_Copy_Cookies_Type": {
      "message": "Wybierz preferowany format eksportu ciastka"
   },
   "editThis_Details": {
      "message": "Szczeg\u00F3\u0142y"
   },
   "editThis_Donate": {
      "message": "Poprzyj"
   },
   "editThis_Donation_Date": {
      "message": "Data przekazania darowizny"
   },
   "editThis_Encode_Cookie_Value": {
      "message": "Zakoduj warto\u015B\u0107 ciastka (ka\u017Cda jako \u003Ca href=\"http://curl.haxx.se/rfc/cookie_spec.html\"\u003Ehttp://curl.haxx.se/rfc/cookie_spec.html\u003C/a\u003E) (Rekomendowane)"
   },
   "editThis_Flag_Cookie": {
      "message": "Oznacz to ciastko"
   },
   "editThis_Flag_New_Cookie": {
      "message": "Oznacz nowe ciastko"
   },
   "editThis_Humanitarian_Program": {
      "message": "Program humanitarny"
   },
   "editThis_Is_ReadOnly": {
      "message": "Chronione"
   },
   "editThis_Max_Date": {
      "message": "Ustaw maksymalny wiek ciastka"
   },
   "editThis_Max_Date_Option": {
      "message": "Ustaw maksymalny wiek dla ka\u017Cdego ciastka"
   },
   "editThis_Money_Raised": {
      "message": "Doch\u00F3d"
   },
   "editThis_Options": {
      "message": "Opcje"
   },
   "editThis_Paste_Cookie_Here": {
      "message": "Wklej tutaj ciastka do zaimportowania. Akceptowane formaty:"
   },
   "editThis_Paste_Cookies": {
      "message": "Importuj ciastka"
   },
   "editThis_Protected_Cookies": {
      "message": "Chronione ciastka"
   },
   "editThis_Rate_ETC": {
      "message": "Oce\u0144 Edit This Cookie"
   },
   "editThis_Rate_Us_Intro": {
      "message": "Je\u017Celi lubisz Edit This Cookie, umie\u015B\u0107 rekomendacje w Chrome Web Store"
   },
   "editThis_ReadOnly_Def": {
      "message": "Chronione ciastka s\u0105 takimi ciastkami, kt\u00F3re nie mog\u0105 by\u0107 modyfikowane przez \u017Cadn\u0105 stron\u0119 lub rozszerzenie"
   },
   "editThis_Save": {
      "message": "Zapisz"
   },
   "editThis_Set_ReadOnly": {
      "message": "Ustaw jako tylko do odczytu"
   },
   "editThis_Show_Alerts": {
      "message": "Zawsze \u017C\u0105daj potwierdzenia"
   },
   "editThis_Show_Christmas_Icon": {
      "message": "Poka\u017C ikon\u0119 z czapk\u0105 \u015Awi\u0119tego Miko\u0142aja"
   },
   "editThis_Show_ContextMenu": {
      "message": "Poka\u017C \"Edytuj Ciastka\" w menu kontekstowym"
   },
   "editThis_Show_ContextMenu_helper": {
      "message": "Je\u017Celi zaznaczone, mo\u017Cesz schowa\u0107 ikon\u0119 na pasku przez klikni\u0119cie prawym przyciskiem myszy!"
   },
   "editThis_Show_Domain": {
      "message": "Poka\u017C nazw\u0119 domeny obok ka\u017Cdej nazwy ciastka"
   },
   "editThis_Source_Code": {
      "message": "Kod zr\u00F3d\u0142owy"
   },
   "editThis_Source_Code_Intro": {
      "description": "It will read: Check Edit This Cookie's source code on GitHub",
      "message": "Sprawd\u017A kod \u017Ar\u00F3d\u0142owy Edit This Cookie za $1"
   },
   "editThis_Use_Custom_Locale": {
      "message": "Wybierz inny j\u0119zyk"
   },
   "editThis_addNew": {
      "message": "Dodaj nowe ciastko"
   },
   "editThis_addRule": {
      "message": "Dodaj t\u0119 regu\u0142\u0119"
   },
   "editThis_adsInfoAndSettings": {
      "message": "Informacje i ustawienia"
   },
   "editThis_advertisements": {
      "message": "Reklamy"
   },
   "editThis_amountByHand": {
      "message": "aby wprowadzi\u0107 kwot\u0119 r\u0119cznie, kliknij tutaj"
   },
   "editThis_backToList": {
      "message": "Wr\u00F3\u0107 do listy"
   },
   "editThis_bugsFeatureRequest": {
      "message": "B\u0142\u0119dy / Sugestie dot. funkcji rozszerzenia"
   },
   "editThis_bugsFeatureRequestIntro": {
      "message": "Znalaz\u0142e\u015B b\u0142\u0105d lub masz jakie\u015B sugestie? Powiedz nam!"
   },
   "editThis_cancel": {
      "message": "Anuluj"
   },
   "editThis_contacts": {
      "message": "Kontakty"
   },
   "editThis_contactsIntro": {
      "message": "Wy\u015Blij nam email"
   },
   "editThis_cookiesCreated": {
      "message": "Stworzone ciastka"
   },
   "editThis_cookiesDeleted": {
      "message": "Ciastka usuni\u0119te"
   },
   "editThis_cookiesExported": {
      "message": "Ciastka zosta\u0142y wyeksportowane"
   },
   "editThis_cookiesFlagged": {
      "message": "Usuni\u0119te zaznaczone ciastka"
   },
   "editThis_cookiesImported": {
      "message": "Zaimportowane ciastka"
   },
   "editThis_cookiesModified": {
      "message": "Zmodyfikowane ciastka"
   },
   "editThis_cookiesProtected": {
      "message": "Chronione ciastka tylko do odczytu"
   },
   "editThis_cookiesShortened": {
      "message": "Wa\u017Cno\u015B\u0107 ciastek zosta\u0142a skr\u00F3cona"
   },
   "editThis_day": {
      "message": "Dni"
   },
   "editThis_deleteAll": {
      "message": "Usu\u0144 wszystko"
   },
   "editThis_description": {
      "message": "Edit This Cookie to menad\u017Cer plik\u00F3w cookie. Mo\u017Cesz dodawa\u0107, usuwa\u0107, edytowa\u0107, wyszukiwa\u0107, chroni\u0107 oraz blokowa\u0107 ciastka!"
   },
   "editThis_domain": {
      "message": "Domena"
   },
   "editThis_donations": {
      "message": "Darowizny"
   },
   "editThis_expiration": {
      "message": "Wyga\u015Bni\u0119cie"
   },
   "editThis_flagAll": {
      "message": "Zaznacz i usu\u0144 wszystko"
   },
   "editThis_gospelBookTitle": {
      "message": "Ewangelia Lataj\u0105cego Potwora Spaghetti"
   },
   "editThis_help": {
      "message": "Pomoc"
   },
   "editThis_helpIntro": {
      "message": "Tutaj mo\u017Cesz znale\u017A\u0107 wyja\u015Bnienia pewnych podstawowych funkcji tego rozszerzenia"
   },
   "editThis_hostOnly": {
      "message": "HostOnly"
   },
   "editThis_hour": {
      "message": "Godziny"
   },
   "editThis_httpOnly": {
      "message": "Tylko Http"
   },
   "editThis_iWantDonate": {
      "description": "I want to donate X euros",
      "message": "Chc\u0119 przekaza\u0107 darowizn\u0119"
   },
   "editThis_minutes": {
      "message": "Minuty"
   },
   "editThis_month": {
      "message": "Miesi\u0105ce"
   },
   "editThis_name": {
      "message": "Nazwa"
   },
   "editThis_noBlockAdded": {
      "message": "Brak dodanych zasad"
   },
   "editThis_noReadOnlyAdded": {
      "message": "Brak chronionych ciastek"
   },
   "editThis_noStatsNotice": {
      "message": "Brak danych :("
   },
   "editThis_path": {
      "message": "\u015Acie\u017Cka"
   },
   "editThis_paypalSupportIntro": {
      "description": "It will read: Support us using PayPal. Move the slider to change the amount",
      "message": "Tworzymy wysokiej jako\u015Bci oprogramowanie open source, kt\u00F3re rozdajemy za darmo. \u003Cbr\u003E\u003Cbr\u003E Wspom\u00F3\u017C nas $1. Przesu\u0144 suwak tak, aby zmieni\u0107 ilo\u015B\u0107"
   },
   "editThis_ppBenefit1": {
      "message": "Wkr\u00F3tce dostaniesz specjalny email dzi\u0119kuj\u0105cy oraz otrzymasz troch\u0119 miejsca w moim sercu"
   },
   "editThis_ppBenefit2": {
      "message": "Twoje imi\u0119 zostanie dodane w Sali Chwa\u0142y"
   },
   "editThis_ppBenefit3": {
      "message": "Wkr\u00F3tce otrzymasz niesamowit\u0105 poczt\u00F3wk\u0119 'Edit This Cookie'!"
   },
   "editThis_ppBenefit4": {
      "message": "Mo\u017Cesz nazwa\u0107 b\u0142\u0119dy rozszerzenia kt\u00F3re Ci\u0119 irytuj\u0105 w Edit This Cookie, a ja je bardzo szybko naprawie!"
   },
   "editThis_ppBenefit5": {
      "message": "Mo\u017Cesz doda\u0107 nowa funkcje rozszerzenia, kt\u00F3r\u0105 chcia\u0142by\u015B doda\u0107 a ja uczyni\u0119 j\u0105 wprowadz\u0119! (tylko nie pytaj mnie, czy to mo\u017Cliwe :P )"
   },
   "editThis_ppBenefit6": {
      "message": "Je\u015Bli kiedykolwiek si\u0119 spotkamy, to kupi\u0119 Ci W\u0142osk\u0105 Kaw\u0119 oraz 'Babb\u00E0'"
   },
   "editThis_ppBenefit7": {
      "message": "Jeste\u015B bardzo hojny! Je\u015Bli kiedykolwiek si\u0119 spotkamy, to kupi\u0119 Ci kilka piw (hej, piwo jest wa\u017Cne)"
   },
   "editThis_ppBenefit8": {
      "message": "Zostaniesz now\u0105 g\u0142ow\u0105 mojej religii, a je\u015Bli sobie \u017Cyczysz, prze\u015Bl\u0119 Ci jeszcze poni\u017Csze ksi\u0105\u017Cki:"
   },
   "editThis_ppBenefit9": {
      "message": "B\u0105d\u017A moja pierwsz\u0105 przyczyn\u0105 ataku serca. Wszystko co musisz zrobi\u0107, to tylko przekaza\u0107 mi darowizn\u0119!"
   },
   "editThis_reloadAfterChanges": {
      "message": "Od\u015Bwie\u017C stron\u0119 po zatwierdzeniu zmian"
   },
   "editThis_reset": {
      "message": "Zresetuj"
   },
   "editThis_search": {
      "message": "Szukaj"
   },
   "editThis_seconds": {
      "message": "Sekundy"
   },
   "editThis_secure": {
      "message": "Zabezpiecz"
   },
   "editThis_session": {
      "message": "Sesja"
   },
   "editThis_skipCacheOnReload": {
      "message": "Pomi\u0144 cache podczas prze\u0142adowania strony"
   },
   "editThis_stats": {
      "message": "Statystyki"
   },
   "editThis_statsIntro": {
      "message": "Tutaj mo\u017Cesz znale\u017A\u0107 informacje o tym, jak u\u017Cywa\u0142e\u015B te rozszerzenie. Dane zosta\u0142y zebrane dopiero od Lipca 2012."
   },
   "editThis_statsSharePolicy": {
      "message": "Gwarantujemy, \u017Ce nie udost\u0119pniamy \u017Cadnych danych osobowych osobom trzecim!"
   },
   "editThis_statsSince": {
      "message": "Statystyki ciastka od: $1"
   },
   "editThis_storeID": {
      "message": "StoreID"
   },
   "editThis_support": {
      "message": "Wsparcie"
   },
   "editThis_time": {
      "message": "Czas"
   },
   "editThis_timesUsed": {
      "message": "U\u017Cy\u0142e\u015B 'Edit This Cookie' $1 razy"
   },
   "editThis_translation": {
      "message": "T\u0142umaczenie"
   },
   "editThis_translationIntro": {
      "message": "Pom\u00F3\u017C w t\u0142umaczeniu tego rozszerzenia na tw\u00F3j j\u0119zyk"
   },
   "editThis_useRegularExpressions": {
      "message": "Mo\u017Cesz u\u017Cywa\u0107 wyra\u017Ce\u0144 regularnych"
   },
   "editThis_value": {
      "message": "Warto\u015B\u0107"
   },
   "editThis_year": {
      "message": "Lata"
   }
}
