{
   "app_copyright": {
      "message": "Copyright 2011 Google Inc. Alle rettigheder forbeholdes."
   },
   "app_description": {
      "message": "Del de rigtige ting med de rigtige mennesker."
   },
   "app_name": {
      "message": "Google+"
   },
   "share_intent_title": {
      "message": "Del p\u00E5 Google+"
   }
}
