{
   "app_copyright": {
      "message": "\u00A9 \u201EGoogle Inc.\u201C, 2011 m. Visos teis\u0117s saugomos."
   },
   "app_description": {
      "message": "Tinkamus dalykus bendrinkite su tinkamais \u017Emon\u0117mis."
   },
   "app_name": {
      "message": "Google+"
   },
   "share_intent_title": {
      "message": "Bendrinti su \u201EGoogle+\u201C"
   }
}
