{
   "editThis_": {
      "message": ""
   },
   "editThis_AN_adsDescription": {
      "message": "Ukazova\u0165 neru\u0161iv\u00E9 reklamy na niektor\u00FDch str\u00E1nkach, ktor\u00E9 nav\u0161tevujem"
   },
   "editThis_AN_optInDescription": {
      "message": "Dovo\u013Ete n\u00E1m zdie\u013Ea\u0165 Va\u0161u hist\u00F3riu prehliadania. V\u0161etky d\u00E1ta s\u00FA anonymn\u00E9."
   },
   "editThis_Alert_deleteAll": {
      "message": "Vymaza\u0165 v\u0161etky cookies pre t\u00FAto str\u00E1nku?"
   },
   "editThis_Alert_deleteCookie": {
      "message": "Vymaza\u0165 cookie"
   },
   "editThis_Alert_deleteRule": {
      "message": "Odstr\u00E1ni\u0165 toto pravidlo"
   },
   "editThis_Alert_submitAll": {
      "message": "Ulo\u017Ei\u0165 zmeny v cookie"
   },
   "editThis_Amount": {
      "message": "\u010Ciastka"
   },
   "editThis_Blocked_Cookies": {
      "message": "Blokovan\u00E9 cookies"
   },
   "editThis_Blocked_Def": {
      "message": "Ak chcete program\u00E1torsky odstr\u00E1ni\u0165 cookie v\u017Edy, ke\u010F sa vytvor\u00ED, pridajte filter a u\u017E V\u00E1s nikdy nebude otravova\u0165"
   },
   "editThis_Charity_Message": {
      "message": "Pom\u00F4\u017Eete de\u0165om v n\u00FAdzi po celom svete, preto\u017Ee $1% z pr\u00EDjmov p\u00F4jde na"
   },
   "editThis_ContextMenu": {
      "message": "Upravi\u0165 cookies"
   },
   "editThis_Copied_clipboard": {
      "message": "Cookies skop\u00EDrovan\u00E9 do schr\u00E1nky"
   },
   "editThis_Copy_Cookies": {
      "message": "Exportova\u0165 cookies"
   },
   "editThis_Copy_Cookies_Type": {
      "message": "Vybra\u0165 preferovan\u00FD form\u00E1t exportu cookies"
   },
   "editThis_Details": {
      "message": "Detaily"
   },
   "editThis_Donate": {
      "message": "Prispie\u0165"
   },
   "editThis_Donation_Date": {
      "message": "D\u00E1tum prispetia"
   },
   "editThis_Encode_Cookie_Value": {
      "message": "Za\u0161ifrujte hodnotu cookies (ako pop\u00EDsan\u00E9 na  \u003Ca href=\"http://curl.haxx.se/rfc/cookie_spec.html\"\u003Ehttp://curl.haxx.se/rfc/cookie_spec.html\u003C/a\u003E) (Odpor\u00FA\u010Dan\u00E9)"
   },
   "editThis_Flag_Cookie": {
      "message": "Nahl\u00E1si\u0165 cookie"
   },
   "editThis_Flag_New_Cookie": {
      "message": "Nahl\u00E1si\u0165 nov\u00FD cookie"
   },
   "editThis_Humanitarian_Program": {
      "message": "Humanit\u00E1rny program"
   },
   "editThis_Is_ReadOnly": {
      "message": "Chr\u00E1nen\u00FD"
   },
   "editThis_Max_Date": {
      "message": "Nastavi\u0165 maxim\u00E1lnu \u017Eivotnos\u0165 cookie"
   },
   "editThis_Max_Date_Option": {
      "message": "Prep\u00EDsa\u0165 maxim\u00E1lnu \u017Eivotnos\u0165 pre ktor\u00FDko\u013Evek cookie"
   },
   "editThis_Money_Raised": {
      "message": "Doteraz vyzbieran\u00E9 peniaze"
   },
   "editThis_Options": {
      "message": "Nastavenia"
   },
   "editThis_Paste_Cookie_Here": {
      "message": "Sem vlo\u017Ete cookies na import. Akceptovan\u00E9 form\u00E1ty:"
   },
   "editThis_Paste_Cookies": {
      "message": "Importova\u0165 cookies"
   },
   "editThis_Protected_Cookies": {
      "message": "Chr\u00E1nen\u00E9 cookies"
   },
   "editThis_Rate_ETC": {
      "message": "Hodnoti\u0165 'Edit This Cookie'"
   },
   "editThis_Rate_Us_Intro": {
      "message": "Ak sa V\u00E1m p\u00E1\u010Di Edit This Cookie, ohodno\u0165te ho na Chrome Web Store"
   },
   "editThis_ReadOnly_Def": {
      "message": "Chr\u00E1nen\u00FD cookie je tak\u00FD, \u010Do nem\u00F4\u017Ee by\u0165 upraven\u00FD \u017Eiadnou str\u00E1nkou ani roz\u0161\u00EDren\u00EDm"
   },
   "editThis_Save": {
      "message": "Ulo\u017Ei\u0165"
   },
   "editThis_Set_ReadOnly": {
      "message": "Nastavi\u0165 iba na \u010D\u00EDtanie"
   },
   "editThis_Show_Alerts": {
      "message": "V\u017Edy sa p\u00FDta\u0165 na potvrdenie"
   },
   "editThis_Show_Christmas_Icon": {
      "message": "Uk\u00E1za\u0165 ikonu Mikul\u00E1\u0161skej \u010Diapky"
   },
   "editThis_Show_ContextMenu": {
      "message": "Ukazova\u0165 \"Edit Cookies\" v kontextovom menu"
   },
   "editThis_Show_ContextMenu_helper": {
      "message": "Ak aktivovan\u00E9, tak budete m\u00F4c\u0165 skry\u0165 ikonu na paneli pomocou prav\u00E9ho tla\u010D\u00EDtka my\u0161i"
   },
   "editThis_Show_Domain": {
      "message": "Uk\u00E1za\u0165 dom\u00E9nu ved\u013Ea n\u00E1zvu cookie"
   },
   "editThis_Source_Code": {
      "message": "Zdrojov\u00FD k\u00F3d"
   },
   "editThis_Source_Code_Intro": {
      "description": "It will read: Check Edit This Cookie's source code on GitHub",
      "message": "Pozrite sa na zdrojov\u00FD k\u00F3d 'Edit This Cookie' na $1"
   },
   "editThis_Use_Custom_Locale": {
      "message": "Vybra\u0165 in\u00FD jazyk"
   },
   "editThis_addNew": {
      "message": "Prida\u0165 nov\u00FD cookie"
   },
   "editThis_addRule": {
      "message": "Prida\u0165 toto pravidlo"
   },
   "editThis_adsInfoAndSettings": {
      "message": "inform\u00E1cie a nastavenia"
   },
   "editThis_advertisements": {
      "message": "Reklama"
   },
   "editThis_amountByHand": {
      "message": "kliknite sem na manu\u00E1lne vlo\u017Eenie sumy"
   },
   "editThis_backToList": {
      "message": "Sp\u00E4\u0165 na zoznam"
   },
   "editThis_bugsFeatureRequest": {
      "message": "Chyby / Vylep\u0161enia"
   },
   "editThis_bugsFeatureRequestIntro": {
      "message": "Na\u0161li ste chybu alebo m\u00E1te n\u00E1vrh? Povedzte n\u00E1m o tom!"
   },
   "editThis_cancel": {
      "message": "Zru\u0161i\u0165"
   },
   "editThis_contacts": {
      "message": "Kontakty"
   },
   "editThis_contactsIntro": {
      "message": "Po\u0161lite n\u00E1m email"
   },
   "editThis_cookiesCreated": {
      "message": "Cookies boli vytvoren\u00E9"
   },
   "editThis_cookiesDeleted": {
      "message": "Cookies boli vymazan\u00E9"
   },
   "editThis_cookiesExported": {
      "message": "Cookies boli exportovan\u00E9"
   },
   "editThis_cookiesFlagged": {
      "message": "Nahl\u00E1sen\u00E9 cookies boli vymazan\u00E9"
   },
   "editThis_cookiesImported": {
      "message": "Cookies boli naimportovan\u00E9"
   },
   "editThis_cookiesModified": {
      "message": "Cookies boli upraven\u00E9"
   },
   "editThis_cookiesProtected": {
      "message": "Tento cookie je iba na \u010D\u00EDtanie"
   },
   "editThis_cookiesShortened": {
      "message": "\u017Divotnos\u0165 cookies sa skr\u00E1tila"
   },
   "editThis_day": {
      "message": "Dni"
   },
   "editThis_deleteAll": {
      "message": "Vymaza\u0165 v\u0161etky"
   },
   "editThis_description": {
      "message": "Edit This Cookie je mana\u017Eovac\u00ED syst\u00E9m pre cookies. M\u00F4\u017Eete prid\u00E1va\u0165, vymaz\u00E1va\u0165, upravova\u0165, vyh\u013Ead\u00E1va\u0165, chr\u00E1ni\u0165 a blokova\u0165 cookies!"
   },
   "editThis_domain": {
      "message": "Dom\u00E9na"
   },
   "editThis_donations": {
      "message": "Pr\u00EDspevky"
   },
   "editThis_expiration": {
      "message": "Expir\u00E1cia"
   },
   "editThis_flagAll": {
      "message": "Nahl\u00E1si\u0165 a vymaza\u0165 v\u0161etky"
   },
   "editThis_gospelBookTitle": {
      "message": "Evanielium Lietaj\u00FAceho \u0160pagetov\u00E9ho Mon\u0161tra"
   },
   "editThis_help": {
      "message": "Pomoc"
   },
   "editThis_helpIntro": {
      "message": "Tu n\u00E1jdete vysvetlenie niektor\u00FDch z\u00E1kladn\u00FDch funkci\u00ED tohto roz\u0161\u00EDrenia"
   },
   "editThis_hostOnly": {
      "message": "HostOnly"
   },
   "editThis_hour": {
      "message": "Hodiny"
   },
   "editThis_httpOnly": {
      "message": "HttpOnly"
   },
   "editThis_iWantDonate": {
      "description": "I want to donate X euros",
      "message": "Chcem prispie\u0165"
   },
   "editThis_minutes": {
      "message": "Min\u00FAty"
   },
   "editThis_month": {
      "message": "Mesiace"
   },
   "editThis_name": {
      "message": "Meno"
   },
   "editThis_noBlockAdded": {
      "message": "Neboli pridan\u00E9 \u017Eiadne blokovacie pravidl\u00E1"
   },
   "editThis_noReadOnlyAdded": {
      "message": "\u017Diadne chr\u00E1nen\u00E9 cookies"
   },
   "editThis_noStatsNotice": {
      "message": "Zatia\u013E \u017Eiadne d\u00E1ta :("
   },
   "editThis_path": {
      "message": "Cesta"
   },
   "editThis_paypalSupportIntro": {
      "description": "It will read: Support us using PayPal. Move the slider to change the amount",
      "message": "Vytv\u00E1rame vysoko kvalitn\u00FD open source softv\u00E9r a pon\u00FAkame ho zadarmo. \u003Cbr\u003E\u003Cbr\u003EPodporte n\u00E1s pomocou $1. Nastavte hodnotu pos\u00FAvan\u00EDm be\u017Eca"
   },
   "editThis_ppBenefit1": {
      "message": "Dostanete \u010Fakovn\u00FD email a mal\u00E9 miesto v mojom srdci"
   },
   "editThis_ppBenefit2": {
      "message": "Va\u0161e meno bude pridan\u00E9 do Siene Sl\u00E1vy"
   },
   "editThis_ppBenefit3": {
      "message": "Dostanete \u00FA\u017Easn\u00FA 'Edit This Cookie' \u010Fakovn\u00FA poh\u013Eadnicu!"
   },
   "editThis_ppBenefit4": {
      "message": "Mo\u017Eete si vybra\u0165 ak\u00FAko\u013Evek chybu v 'Edit This Cookie', ktor\u00E1 V\u00E1s otravuje a ja ju okam\u017Eite oprav\u00EDm!"
   },
   "editThis_ppBenefit5": {
      "message": "M\u00F4\u017Eete si poveda\u0165 o ak\u00E9ko\u013Evek vylep\u0161enie a ja ho zrealizujem! (len si nep\u00FDtajte nemo\u017En\u00E9 :P )"
   },
   "editThis_ppBenefit6": {
      "message": "Ak sa niekedy stretneme, dostanete taliansk\u00FA k\u00E1vu a 'Babb\u00E0'"
   },
   "editThis_ppBenefit7": {
      "message": "Ste ve\u013Emi \u0161tedr\u00FD! Ak sa niekedy stretneme, d\u00E1vam V\u00E1m p\u00E1r p\u00EDv (hej, pivo je d\u00F4le\u017Eit\u00E9)"
   },
   "editThis_ppBenefit8": {
      "message": "Stanete  sa nov\u00FDm ved\u00FAcim m\u00F4jho n\u00E1bo\u017Eenstva, a na \u017Eelani V\u00E1m za\u0161lem nasleduj\u00FAcu knihu:"
   },
   "editThis_ppBenefit9": {
      "message": "Sp\u00F4sobte mi m\u00F4j prv\u00FD infarkt. V\u0161etko \u010Do mus\u00EDte teraz urobi\u0165, je prispie\u0165!"
   },
   "editThis_reloadAfterChanges": {
      "message": "Obnovi\u0165 str\u00E1nku po ulo\u017Een\u00ED zmien"
   },
   "editThis_reset": {
      "message": "Vynulova\u0165"
   },
   "editThis_search": {
      "message": "H\u013Eada\u0165"
   },
   "editThis_seconds": {
      "message": "Sekundy"
   },
   "editThis_secure": {
      "message": "Zabezpe\u010Den\u00FD"
   },
   "editThis_session": {
      "message": "Session"
   },
   "editThis_skipCacheOnReload": {
      "message": "Presko\u010Di\u0165 cache pri obnoven\u00ED str\u00E1nky"
   },
   "editThis_stats": {
      "message": "\u0160tatistiky"
   },
   "editThis_statsIntro": {
      "message": "Tu m\u00F4\u017Eete zisti\u0165 ako ste pou\u017E\u00EDvali toto roz\u0161\u00EDrenie. Tieto d\u00E1ta s\u00FA zbieran\u00E9 iba od J\u00FAla 2012."
   },
   "editThis_statsSharePolicy": {
      "message": "Garantujeme V\u00E1m, \u017Ee nikdy nezdie\u013Eame \u017Eiadne person\u00E1lne \u00FAdaje!"
   },
   "editThis_statsSince": {
      "message": "\u0160tatistika cookies od: $1"
   },
   "editThis_storeID": {
      "message": "StoreID"
   },
   "editThis_support": {
      "message": "Podporte n\u00E1s"
   },
   "editThis_time": {
      "message": "\u010Cas"
   },
   "editThis_timesUsed": {
      "message": "Pou\u017Eili ste 'Edit This Cookie' $1kr\u00E1t"
   },
   "editThis_translation": {
      "message": "Preklad"
   },
   "editThis_translationIntro": {
      "message": "Pom\u00F4\u017Ete n\u00E1m prelo\u017Ei\u0165 roz\u0161\u00EDrenie do V\u00E1\u0161ho jazyka"
   },
   "editThis_useRegularExpressions": {
      "message": "M\u00F4\u017Eete pou\u017E\u00EDva\u0165 regul\u00E1rne v\u00FDrazy"
   },
   "editThis_value": {
      "message": "Hodnota"
   },
   "editThis_year": {
      "message": "Roky"
   }
}
