{
   "app_copyright": {
      "message": "\u03A0\u03BD\u03B5\u03C5\u03BC\u03B1\u03C4\u03B9\u03BA\u03AC \u03B4\u03B9\u03BA\u03B1\u03B9\u03CE\u03BC\u03B1\u03C4\u03B1 2011 Google Inc. \u039C\u03B5 \u03C4\u03B7\u03BD \u03B5\u03C0\u03B9\u03C6\u03CD\u03BB\u03B1\u03BE\u03B7 \u03C0\u03B1\u03BD\u03C4\u03CC\u03C2 \u03B4\u03B9\u03BA\u03B1\u03B9\u03CE\u03BC\u03B1\u03C4\u03BF\u03C2."
   },
   "app_description": {
      "message": "\u039C\u03BF\u03B9\u03C1\u03B1\u03C3\u03C4\u03B5\u03AF\u03C4\u03B5 \u03C4\u03B1 \u03C3\u03C9\u03C3\u03C4\u03AC \u03C0\u03C1\u03AC\u03B3\u03BC\u03B1\u03C4\u03B1 \u03BC\u03B5 \u03C4\u03BF\u03C5\u03C2 \u03C3\u03C9\u03C3\u03C4\u03BF\u03CD\u03C2 \u03B1\u03BD\u03B8\u03C1\u03CE\u03C0\u03BF\u03C5\u03C2."
   },
   "app_name": {
      "message": "Google+"
   },
   "share_intent_title": {
      "message": "\u039C\u03BF\u03B9\u03C1\u03B1\u03C3\u03C4\u03B5\u03AF\u03C4\u03B5 \u03C3\u03C4\u03BF Google+"
   }
}
